{
  "parent": "acidisland:vanity/root",
  "display": {
    "icon": {
      "item": "minecraft:music_disc_chirp"
    },
    "title": "Disc Pic",
    "description": "Now if I just had a way to play them...",
    "frame": "challenge",
    "show_toast": true,
    "announce_to_chat": true,
    "hidden": false
  },
  "criteria": {
    "get_discs": {
      "trigger": "minecraft:inventory_changed",
      "conditions": {
        "items": [
          {
            "item": "minecraft:music_disc_13"
          },
          {
            "item": "minecraft:music_disc_cat"
          },
          {
            "item": "minecraft:music_disc_blocks"
          },
          {
            "item": "minecraft:music_disc_chirp"
          },
          {
            "item": "minecraft:music_disc_far"
          },
          {
            "item": "minecraft:music_disc_mall"
          },
          {
            "item": "minecraft:music_disc_mellohi"
          },
          {
            "item": "minecraft:music_disc_stal"
          },
          {
            "item": "minecraft:music_disc_strad"
          },
          {
            "item": "minecraft:music_disc_ward"
          },
          {
            "item": "minecraft:music_disc_11"
          },
          {
            "item": "minecraft:music_disc_wait"
          }
        ]
      }
    }
  }
}
