{
  "parent": "acidisland:hunting/zombie",
  "display": {
    "icon": {
      "item": "minecraft:nautilus_shell"
    },
    "title": "Because Acid Wasn't Bad Enough",
    "description": "This is not how I remember this game!",
    "frame": "goal",
    "show_toast": true,
    "announce_to_chat": true,
    "hidden": false
  },
  "criteria": {
    "kill_drowned": {
      "trigger": "minecraft:player_killed_entity",
      "conditions": {
        "entity": {
          "type": "minecraft:drowned"
        }
      }
    }
  }
}
