{
  "parent": "acidisland:hunting/pufferfish",
  "display": {
    "icon": {
      "item": "minecraft:tropical_fish"
    },
    "title": "Clownish",
    "description": "How long did that take you?",
    "frame": "challenge",
    "show_toast": true,
    "announce_to_chat": true,
    "hidden": false
  },
  "criteria": {
    "get_clownfish": {
      "trigger": "minecraft:inventory_changed",
      "conditions": {
        "items": [
          {
            "item": "minecraft:tropical_fish",
            "count": 64
          }
        ]
      }
    }
  }
}
