{
  "parent": "acidisland:farming/wheat",
  "display": {
    "icon": {
      "item": "minecraft:hay_block"
    },
    "title": "Hay Baby",
    "description": "Why do you wear a mask?",
    "frame": "challenge",
    "show_toast": true,
    "announce_to_chat": true,
    "hidden": false
  },
  "criteria": {
    "get_hay": {
      "trigger": "minecraft:inventory_changed",
      "conditions": {
        "items": [
          {
            "item": "minecraft:hay_block",
            "count": 64
          }
        ]
      }
    }
  }
}
