{
  "parent": "acidisland:farming/root",
  "display": {
    "icon": {
      "item": "minecraft:pumpkin_seeds"
    },
    "title": "Not Spooky",
    "description": "Obtain a stack of pumpkin seeds",
    "frame": "task",
    "show_toast": true,
    "announce_to_chat": true,
    "hidden": false
  },
  "criteria": {
    "get_seeds": {
      "trigger": "minecraft:inventory_changed",
      "conditions": {
        "items": [
          {
            "item": "minecraft:pumpkin_seeds",
            "count": 64
          }
        ]
      }
    }
  }
}
