{
  "parent": "acidisland:mainline/root",
  "display": {
    "icon": {
      "item": "minecraft:ender_pearl"
    },
    "title": "Uh, How Did I Get Here?",
    "description": "Own or join an island",
    "frame": "task",
    "show_toast": true,
    "announce_to_chat": true,
    "hidden": false
  },
  "criteria": {
    "plugin_only": {
      "trigger": "minecraft:impossible"
    }
  }
}
