{
  "parent": "acidisland:mainline/obtain_sapling",
  "display": {
    "icon": {
      "item": "minecraft:oak_sapling"
    },
    "title": "Oh, Come on!",
    "description": "Obtain an oak sapling from the /ai shop",
    "frame": "task",
    "show_toast": true,
    "announce_to_chat": true,
    "hidden": false
  },
  "criteria": {
    "get_sapling": {
      "trigger": "minecraft:inventory_changed",
      "conditions": {
        "items": [
          {
            "item": "minecraft:oak_sapling"
          }
        ]
      }
    }
  }
}
