{
  "parent": "acidisland:mainline/acid_hurts",
  "display": {
    "icon": {
      "item": "minecraft:water_bucket"
    },
    "title": "It's Raining Death!",
    "description": "Hallelujah!",
    "frame": "goal",
    "show_toast": true,
    "announce_to_chat": true,
    "hidden": false
  },
  "criteria": {
    "plugin_only": {
      "trigger": "minecraft:impossible"
    }
  }
}
