{
  "parent": "acidisland:mainline/take_inventory",
  "display": {
    "icon": {
      "item": "minecraft:writable_book"
    },
    "title": "Dear Diary",
    "description": "Now what, Friday?",
    "frame": "challenge",
    "show_toast": true,
    "announce_to_chat": true,
    "hidden": false
  },
  "criteria": {
    "plugin_only": {
      "trigger": "minecraft:impossible"
    }
  }
}
